User Guide
…
These functions are used internally by the package, but are also used
for the calculation of effective spectral irradiances by multiplication
of a source_spct object by a waveband
object.

sun.spct * CIE()

## Object: source_spct [522 x 2]
## Wavelength range 280-800 nm, step 0.9230769-1 nm 
## Label: sunlight, simulated 
## Measured on 2010-06-22 09:51:00 UTC 
## Measured at 60.20911 N, 24.96474 E; Kumpula, Helsinki, FI 
## Time unit 1s
## 
## # A tibble: 522 × 2
##    w.length s.e.irrad
##       <dbl>     <dbl>
##  1     280          0
##  2     281.         0
##  3     282.         0
##  4     283.         0
##  5     284.         0
##  6     285.         0
##  7     286.         0
##  8     286.         0
##  9     287.         0
## 10     288.         0
## # … with 512 more rows
…
